<?xml version="1.0" encoding="UTF-8" standalone="no"?>
<!-- Created with Inkscape (http://www.inkscape.org/) -->

<svg
   xmlns:dc="http://purl.org/dc/elements/1.1/"
   xmlns:cc="http://creativecommons.org/ns#"
   xmlns:rdf="http://www.w3.org/1999/02/22-rdf-syntax-ns#"
   xmlns:svg="http://www.w3.org/2000/svg"
   xmlns="http://www.w3.org/2000/svg"
   xmlns:sodipodi="http://sodipodi.sourceforge.net/DTD/sodipodi-0.dtd"
   xmlns:inkscape="http://www.inkscape.org/namespaces/inkscape"
   width="48in"
   height="36in"
   viewBox="0 0 4319.9996 3240.0001"
   id="svg4416"
   version="1.1"
   inkscape:version="0.91 r13725"
   sodipodi:docname="bubhub_poster_red_bar_4x3.svg">
  <defs
     id="defs4418">
    <inkscape:perspective
       sodipodi:type="inkscape:persp3d"
       inkscape:vp_x="1584.8452 : 2489.7363 : 1"
       inkscape:vp_y="0 : 91.870791 : 0"
       inkscape:vp_z="1981.727 : 2489.7363 : 1"
       inkscape:persp3d-origin="1783.2861 : 2440.1261 : 1"
       id="perspective6002" />
    <mask
       maskUnits="userSpaceOnUse"
       id="mask5516">
      <rect
         style="opacity:1;fill:#ffffff;fill-opacity:1;stroke:#333333;stroke-width:0.11403205;stroke-miterlimit:4;stroke-dasharray:none;stroke-dashoffset:0;stroke-opacity:1"
         id="rect5518"
         width="90.121918"
         height="55.95356"
         x="7.7534165"
         y="0.090576917" />
    </mask>
  </defs>
  <sodipodi:namedview
     id="base"
     pagecolor="#ffffff"
     bordercolor="#666666"
     borderopacity="1.0"
     inkscape:pageopacity="0.0"
     inkscape:pageshadow="2"
     inkscape:zoom="0.16698367"
     inkscape:cx="2532.7348"
     inkscape:cy="1852.3685"
     inkscape:document-units="in"
     inkscape:current-layer="layer3"
     showgrid="false"
     units="ft"
     inkscape:window-width="1600"
     inkscape:window-height="849"
     inkscape:window-x="0"
     inkscape:window-y="0"
     inkscape:window-maximized="1"
     showguides="true"
     inkscape:guide-bbox="true">
    <inkscape:grid
       type="xygrid"
       id="grid5330"
       units="in"
       spacingx="22.499998"
       spacingy="22.500001"
       empspacing="4"
       dotted="false" />
  </sodipodi:namedview>
  <metadata
     id="metadata4421">
    <rdf:RDF>
      <cc:Work
         rdf:about="">
        <dc:format>image/svg+xml</dc:format>
        <dc:type
           rdf:resource="http://purl.org/dc/dcmitype/StillImage" />
        <dc:title />
      </cc:Work>
    </rdf:RDF>
  </metadata>
  <g
     inkscape:label="bg"
     inkscape:groupmode="layer"
     id="layer1"
     transform="translate(0,2187.6378)"
     style="display:inline">
    <rect
       style="opacity:1;fill:#cc0000;fill-opacity:1;stroke:none;stroke-width:1;stroke-miterlimit:4;stroke-dasharray:none;stroke-dashoffset:0;stroke-opacity:1"
       id="rect4965"
       width="4320"
       height="360"
       x="-0.00024414062"
       y="-2187.6377" />
    <g
       transform="matrix(1.2856523,0,0,1.2856523,-7.4690154,-2232.0122)"
       style="display:inline"
       id="g5292">
      <g
         id="g5377"
         transform="matrix(0.34334944,0,0,0.34334944,18.904167,-89.514042)">
        <path
           id="path5374"
           transform="translate(-2.4414063e-4,0)"
           d="m 59.414062,463.93164 0,294 0,293.99996 656.499998,0 656.50004,0 0,-293.99996 0,-294 -656.50004,0 -656.499998,0 z"
           style="fill:#ffffff"
           inkscape:connector-curvature="0" />
        <path
           inkscape:connector-curvature="0"
           id="path5322"
           d="m 54.883182,757.93234 0,-296.029 661.030748,0 661.03077,0 0,296.029 0,296.02906 -661.03077,0 -661.030748,0 0,-296.02906 z m 1299.909618,-8.1e-4 0,-274.88488 -639.1306,0.25254 -639.130639,0.25253 -0.257867,273.37372 c -0.141873,150.35555 -0.04229,273.94016 0.220108,274.63236 0.381717,1.0051 129.186348,1.2587 639.388508,1.2587 l 638.91049,0 0,-274.88497 z m -1268.695676,8.1e-4 0,-264.81506 629.816806,0 629.81677,0 0,264.81506 0,264.81516 -629.81677,0 -629.816806,0 0,-264.81516 z M 245.42386,933.57883 c 12.18401,-2.96039 22.2348,-10.16688 27.39013,-19.639 5.0622,-9.30085 5.57592,-13.22424 5.59495,-42.73109 0.0101,-15.93502 0.45754,-28.77069 1.08061,-31.01457 1.24604,-4.48706 5.76491,-7.74166 10.75683,-7.7474 2.81831,0 3.27242,-0.35302 3.27242,-2.52098 l 0,-2.51726 -20.13802,0 -20.13803,0 0,2.38918 c 0,2.13675 0.54131,2.44113 5.12412,2.88145 3.79028,0.3642 5.8217,1.18985 7.80349,3.17174 l 2.67936,2.67936 0,30.93926 c 0,28.08339 -0.17822,31.40143 -1.93063,35.94548 -2.54364,6.5957 -9.44937,13.83955 -15.97832,16.76067 -4.61543,2.06506 -6.83142,2.35193 -18.3395,2.37388 -10.53289,0.0201 -14.06762,-0.35212 -18.09583,-1.90567 -6.57698,-2.53648 -13.82908,-9.4398 -16.78565,-15.97831 -2.30943,-5.10721 -2.38213,-6.11804 -2.67785,-37.21236 l -0.30409,-31.96257 2.5238,-2.5238 c 1.95349,-1.95349 3.55809,-2.5238 7.10057,-2.5238 4.21076,0 4.57687,-0.20138 4.57687,-2.51725 l 0,-2.51726 -22.22181,0 -22.22191,0 0.3218,2.26553 c 0.25384,1.78745 1.06531,2.32625 3.84586,2.5534 5.31413,0.43418 9.03473,2.23603 9.54432,4.62239 0.25112,1.17596 0.63224,16.18432 0.84691,33.35199 0.44031,35.20651 1.00166,38.39376 8.49794,48.24709 11.1759,14.69019 34.54075,20.79866 57.87166,15.1299 z m 352.66539,-42.26629 c 9.42399,-24.38585 18.00632,-46.27044 19.07192,-48.63253 2.68692,-5.95623 7.78607,-10.23697 12.19428,-10.23697 3.05041,0 3.48912,-0.31647 3.48912,-2.51725 l 0,-2.51726 -20.13803,0 -20.13803,0 0,2.39623 c 0,2.20511 0.47506,2.43066 5.95673,2.82708 7.14417,0.51684 9.14679,1.94221 9.14679,6.51052 0,3.91181 -27.29649,76.17843 -28.35434,75.06721 -1.30706,-1.37291 -30.04594,-73.58264 -30.04594,-75.49373 0,-3.29328 3.40605,-5.31957 10.20122,-6.069 5.62828,-0.62076 6.45203,-0.98435 6.73436,-2.97278 l 0.32181,-2.26553 -23.73227,0 -23.73216,0 0,2.51726 c 0,2.21448 0.43196,2.51725 3.59031,2.51725 5.10207,0 7.15806,1.42497 9.85907,6.83273 1.30384,2.6107 10.44349,24.90984 20.31021,49.55375 9.86673,24.64391 18.38864,45.39595 18.9375,46.11558 0.60867,0.79807 2.5964,1.19086 5.09543,1.0069 l 4.09738,-0.30157 17.13464,-44.33789 z m 326.24763,42.63049 c 13.82948,-3.50724 22.99502,-14.47018 23.02473,-27.54006 0.0272,-11.84982 -6.7235,-20.54099 -25.32107,-32.60145 -23.88904,-15.49189 -27.90507,-19.57528 -27.90507,-28.37308 0,-5.9241 2.46681,-9.59013 8.61757,-12.80718 3.65525,-1.9117 5.58115,-2.25797 10.54316,-1.89579 3.33909,0.24367 7.89048,1.3713 10.11433,2.50587 4.49833,2.29483 11.47495,9.39037 13.96219,14.20003 1.92641,3.72534 4.59059,4.17733 4.59059,0.77874 0,-4.59499 -2.23615,-19.30472 -3.06956,-20.1918 -0.49469,-0.5265 -2.03797,-0.40678 -3.71587,0.28828 -2.37619,0.98425 -3.98793,0.83825 -9.36982,-0.84862 -8.76629,-2.74753 -21.12932,-2.77804 -28.3624,-0.0695 -10.96687,4.10614 -17.18015,12.08664 -17.26232,22.17227 -0.0987,12.0813 6.5362,20.05929 28.75358,34.57538 21.07082,13.76696 26.655,20.88042 24.03363,30.61554 -2.44002,9.06151 -10.66188,14.60863 -21.64405,14.60269 -12.56764,-0.0101 -22.68045,-7.44775 -26.68007,-19.63126 -0.8614,-2.62398 -1.83014,-3.77588 -3.17536,-3.77588 -2.37427,0 -2.42059,1.7502 -0.41293,15.60698 0.8023,5.53795 1.46766,10.40884 1.47843,10.82419 0.0302,1.16891 3.50845,0.8911 4.78158,-0.38192 0.84489,-0.84499 3.41943,-0.59337 10.01867,0.97901 13.90238,3.3125 17.27802,3.43343 27.00006,0.96793 z m -54.87049,-1.2248 c 0,-2.04078 -0.63072,-2.53527 -3.94907,-3.09592 -7.30305,-1.23385 -12.45124,-5.66009 -24.84408,-21.3603 -6.46934,-8.19577 -13.4807,-16.98461 -15.58089,-19.53087 l -3.81837,-4.62933 3.41037,-1.62634 c 16.72695,-7.97647 21.56964,-29.58277 9.66243,-43.11008 -10.17504,-11.55943 -25.79742,-14.28894 -69.09468,-12.07205 -11.54725,0.59126 -12.09712,0.71903 -12.40452,2.88417 -0.28677,2.01894 0.10794,2.26553 3.62555,2.26553 5.17064,0 10.08613,1.76661 11.31747,4.06728 0.5982,1.11776 0.98565,18.51077 0.98565,44.24355 l 0,42.40182 -2.47154,2.47154 c -2.02971,2.02981 -3.46928,2.47144 -8.05521,2.47144 -5.29519,0 -5.58367,0.131 -5.58367,2.53518 l 0,2.53517 24.41736,-0.26964 c 23.65624,-0.26119 24.41736,-0.33238 24.41736,-2.28346 0,-1.74868 -0.84056,-2.08066 -6.38577,-2.52178 -9.9203,-0.78901 -10.22972,-1.45537 -10.22086,-22.00714 l 0.0101,-16.75403 10.63872,0 c 12.33102,0 9.58077,-1.93798 25.09178,17.68149 18.79382,23.77173 24.5402,27.38298 44.55539,28.00052 3.88835,0.11992 4.27933,-0.0896 4.27933,-2.29675 z m -84.57972,-74.71339 0,-26.79707 10.33333,0.38253 c 12.839,0.47525 19.99646,3.43413 24.39873,10.08633 3.67408,5.55195 5.23005,15.39572 3.63763,23.01273 -2.94035,14.06379 -12.22358,20.11255 -30.86747,20.11255 l -7.50222,0 0,-26.79707 z m -360.47069,26.92032 c 0,-55.95744 -0.74178,-51.61487 8.96505,-52.48212 4.79597,-0.42844 5.63502,-0.8033 5.63502,-2.51725 0,-1.93879 -0.76222,-2.02397 -20.46255,-2.28657 l -20.46255,-0.27287 0.32452,2.28667 c 0.28264,1.99175 1.08403,2.36813 6.21561,2.91941 4.08177,0.4385 6.55583,1.29719 8.05521,2.79586 2.11822,2.11711 2.17118,2.91015 2.4956,37.37769 0.18225,19.36805 -0.0443,35.17278 -0.50345,35.12143 -0.45925,-0.0514 -18.05293,-18.15081 -39.09717,-40.22128 l -38.26226,-40.12815 -13.91487,-0.0544 c -13.86805,-0.0544 -13.91387,-0.0473 -13.59317,2.21086 0.22142,1.55918 1.10649,2.35504 2.83896,2.55269 1.38449,0.15788 4.44295,0.98838 6.79659,1.84535 l 4.27933,1.55818 0,43.13112 c 0,23.7221 -0.28143,43.86455 -0.62549,44.7611 -0.89745,2.33873 -5.73632,4.57616 -9.89694,4.57616 -3.14123,0 -3.57419,0.30499 -3.57419,2.51726 l 0,2.51725 20.13802,0 20.13803,0 0,-2.39622 c 0,-2.21065 -0.47103,-2.43026 -6.08047,-2.83604 -4.53962,-0.32835 -6.64475,-1.00378 -8.30694,-2.66527 -2.21085,-2.20985 -2.22847,-2.50114 -2.51212,-41.48897 l -0.28556,-39.26361 42.91384,44.82856 c 37.35916,39.02588 43.29364,44.82845 45.84794,44.82845 l 2.93401,0 0,-49.21492 z m 79.04176,45.70325 c 0,-1.6345 -0.92293,-2.13322 -5.03451,-2.72065 -8.98307,-1.28329 -8.55866,1.0788 -8.55866,-47.6369 0,-48.88134 -0.39138,-46.72546 8.67144,-47.7661 4.06204,-0.46649 4.92173,-0.91688 4.92173,-2.57897 0,-1.9404 -0.76202,-2.02377 -20.8932,-2.28597 l -20.89321,-0.27217 0,2.40509 c 0,2.06737 0.59961,2.48553 4.26906,2.97771 8.10878,1.08765 7.81376,-0.70665 7.81376,47.52041 0,48.22705 0.29502,46.43275 -7.81376,47.5204 -3.66945,0.49218 -4.26906,0.91034 -4.26906,2.97771 l 0,2.40509 20.89321,-0.27217 c 20.08738,-0.26169 20.8932,-0.34939 20.8932,-2.27348 z m 227.42922,-1.27111 c 0.30247,-2.07674 0.81428,-6.26796 1.13739,-9.31384 0.32312,-3.04588 0.83492,-7.2371 1.1374,-9.31384 0.50657,-3.47804 0.35705,-3.77588 -1.8964,-3.77588 -2.00867,0 -2.67242,0.76575 -3.70983,4.27933 -1.78272,6.03809 -4.81359,10.62604 -8.16466,12.35891 -4.3339,2.24116 -39.41082,2.16011 -41.66729,-0.0967 -1.33253,-1.33253 -1.58224,-4.74895 -1.58224,-21.64828 l 0,-20.06613 13.97075,0 c 7.68397,0 15.4064,0.28716 17.16103,0.63807 3.52939,0.70584 5.50603,3.60471 6.66286,9.77147 0.58622,3.12482 1.09058,3.74115 2.85537,3.48942 2.08751,-0.29784 2.14329,-0.73816 2.14329,-16.91967 0,-16.2393 -0.0483,-16.62082 -2.16735,-16.92279 -1.83669,-0.26169 -2.27681,0.33893 -2.88477,3.93749 -0.39612,2.34427 -1.77255,5.30154 -3.07307,6.60205 -2.27398,2.27389 -2.91669,2.35565 -18.51198,2.35565 l -16.15613,0 0,-19.63458 0,-19.63458 19.54506,0 19.54506,0 2.53327,3.01064 c 1.41117,1.67699 3.04356,5.46818 3.68505,8.55866 0.91568,4.41073 1.54993,5.54803 3.09421,5.54803 1.69421,0 1.94151,-0.73967 1.93527,-5.78969 0,-3.18432 -0.29603,-8.84814 -0.64905,-12.58626 l -0.6419,-6.79659 -40.63391,0 -40.63391,0 0,2.51726 c 0,2.37679 0.3058,2.51725 5.48177,2.51725 4.34237,0 6.0691,0.50496 8.30694,2.42915 l 2.82516,2.42915 0.29442,40.79783 c 0.2482,34.39112 0.0584,41.36311 -1.20989,44.39811 -1.81262,4.33813 -4.67313,5.60139 -12.68384,5.60139 -5.98331,0 -7.68094,0.91064 -6.65954,3.57238 0.47888,1.24786 7.11809,1.46213 45.31127,1.46213 l 44.75022,0 0.54997,-3.77588 z m 287.60084,1.25862 c 0,-2.19907 -0.4396,-2.51725 -3.4769,-2.51725 -4.6704,0 -8.1469,-1.71576 -9.5018,-4.68944 -0.7604,-1.66884 -1.118,-15.4659 -1.118,-43.13837 0,-27.67247 0.3576,-41.46944 1.118,-43.13838 1.3549,-2.97368 4.8314,-4.68944 9.5018,-4.68944 3.0373,0 3.4769,-0.31818 3.4769,-2.51725 l 0,-2.51726 -21.215,0 -21.21501,0 0.32181,2.25194 c 0.24931,1.74556 1.18834,2.39209 4.17552,2.8749 2.11953,0.34255 4.83816,1.60742 6.04141,2.81077 2.17702,2.17732 2.18759,2.39572 2.18759,45.04041 l 0,42.85241 -2.82516,2.42986 c -1.80367,1.55143 -4.07886,2.42985 -6.29314,2.42985 -3.02785,0 -3.46797,0.31939 -3.46797,2.51725 l 0,2.51726 21.14493,0 21.14502,0 0,-2.51726 z m 99.6832,0.11006 c 0,-2.29 -0.3669,-2.42573 -7.5345,-2.78771 -12.002,-0.60605 -11.0462,3.44663 -11.3754,-48.23047 l -0.2822,-44.29299 16.8409,0.27619 16.8408,0.2762 1.9939,3.41591 c 1.0965,1.87878 2.5129,5.73017 3.1473,8.55866 0.9375,4.17925 1.5885,5.20618 3.4746,5.48117 2.2377,0.32623 2.2989,0.1459 1.7094,-5.03451 -0.3363,-2.95515 -0.873,-8.31811 -1.1926,-11.91778 -0.868,-9.77863 -1.2714,-11.07592 -3.4439,-11.07592 -1.0644,0 -2.2153,0.45311 -2.5575,1.0069 -0.3995,0.64623 -16.2689,1.0069 -44.3037,1.0069 -28.0347,0 -43.9042,-0.36067 -44.3036,-1.0069 -0.3423,-0.55379 -1.662,-1.0069 -2.9326,-1.0069 -2.205,0 -2.363,0.51956 -3.4648,11.38665 -1.5992,15.77371 -1.5507,16.80659 0.788,16.80659 1.5412,0 2.1772,-1.13115 3.0792,-5.47583 0.6252,-3.01174 2.1474,-6.97642 3.3826,-8.81039 l 2.2459,-3.33455 16.8672,-0.2763 16.8672,-0.27619 -0.2922,43.91268 -0.2921,43.91278 -2.8252,2.42925 c -2.3481,2.01914 -3.9105,2.42925 -9.2543,2.42925 -6.4649,0 -8.2098,0.86906 -7.1725,3.57239 0.4711,1.22741 4.8498,1.46212 27.2756,1.46212 l 26.7145,0 0,-2.4072 z m 116.2971,-0.11006 c 0,-1.69058 -0.8484,-2.09908 -5.2862,-2.54524 -3.6356,-0.3654 -5.9936,-1.23788 -7.5518,-2.79415 -2.1209,-2.11832 -2.2861,-3.2527 -2.5871,-17.77433 l -0.3216,-15.51162 14.8019,-24.99099 c 8.1411,-13.745 15.9886,-26.29412 17.439,-27.88693 3.1215,-3.4281 9.578,-6.61645 13.4611,-6.64747 2.2828,-0.0181 2.769,-0.468 2.769,-2.56115 l 0,-2.539 -19.3829,0.27347 c -18.6204,0.2627 -19.3828,0.35272 -19.3828,2.28728 0,1.58838 0.8508,2.12758 4.0276,2.55259 5.3024,0.70926 6.5449,1.58547 6.5449,4.61614 0,1.82934 -21.9816,41.40107 -24.7489,44.55337 -0.3157,0.35967 -9.3028,-13.17057 -22.2587,-33.51108 -8.4842,-13.3198 -8.3673,-15.69377 0.7725,-15.69377 3.5448,0 3.9452,-0.25736 3.9452,-2.53618 l 0,-2.53608 -22.907,0.27055 c -22.0975,0.26109 -22.907,0.34134 -22.907,2.27197 0,1.61678 0.9077,2.13121 4.7235,2.67705 9.6671,1.38288 9.7264,1.45054 32.8535,37.48986 l 15.4296,24.044 -0.3238,14.55959 c -0.3234,14.53502 -0.3287,14.56372 -3.1491,16.98723 -2.1514,1.84877 -3.998,2.42764 -7.744,2.42764 -5.0607,0 -6.6465,1.007 -5.6549,3.59101 0.4817,1.25531 4.1362,1.43957 24.0031,1.2104 22.6735,-0.26159 23.4349,-0.3358 23.4349,-2.28416 z M 457.12447,740.17422 c 18.23438,-3.47008 32.16395,-10.90957 45.93283,-24.53174 17.39583,-17.21046 25.27513,-35.99048 25.34703,-60.41408 0.0383,-12.87394 -1.9405,-21.72611 -7.31383,-32.72429 -14.04678,-28.75107 -45.91652,-46.82092 -82.5779,-46.82092 -55.16027,0 -95.17151,39.38052 -92.35933,90.90326 1.00448,18.40354 7.19612,32.91138 19.73395,46.23923 11.93017,12.68182 24.66143,20.2375 42.92179,25.47309 15.78207,4.52501 31.24002,5.12513 48.31546,1.87545 z m -24.14983,-6.34448 c -15.89504,-2.59438 -27.15512,-8.44951 -38.93073,-20.24385 -7.56535,-7.57744 -9.38976,-10.12671 -13.73977,-19.1992 -5.97888,-12.46987 -8.19225,-21.03125 -8.94723,-34.6078 -1.99386,-35.85747 17.16546,-67.10051 45.65261,-74.44535 7.89129,-2.03455 23.97976,-2.04814 32.579,-0.0272 23.74152,5.57894 42.83106,24.87288 50.43126,50.97136 3.07276,10.55152 3.82219,33.57664 1.47249,45.23746 -5.2528,26.06717 -21.15067,45.22447 -42.20568,50.85899 -6.64193,1.77738 -19.86043,2.5087 -26.31195,1.45578 z m 195.33887,6.3757 c 19.23303,-4.57788 32.67204,-17.83071 35.9489,-35.45078 1.43221,-7.70139 0.0826,-16.14063 -3.88604,-24.29009 -3.98844,-8.19124 -16.58376,-20.12323 -30.89073,-29.26378 -32.25709,-20.60875 -37.87952,-24.99954 -42.21736,-32.96957 -13.36279,-24.55168 13.98466,-44.27718 42.21193,-30.44709 7.34283,3.59756 16.11686,12.55103 19.624,20.02536 2.02438,4.31407 2.78862,5.05253 5.26569,5.08777 2.7855,0.0393 2.87521,-0.10482 2.31618,-3.7346 -0.31989,-2.07673 -1.34583,-9.55297 -2.27993,-16.61387 l -1.69834,-12.83799 -2.82385,0 c -1.55315,0 -3.10398,0.4531 -3.44622,1.0069 -1.04295,1.68746 -6.07293,1.13669 -14.30999,-1.56714 -10.47127,-3.43706 -26.15305,-4.3476 -35.78336,-2.07764 -24.93007,5.87617 -38.25591,26.24559 -30.9886,47.36816 4.3913,12.76379 12.9407,20.97406 41.29001,39.65258 22.41473,14.76843 31.08234,22.15848 34.96455,29.81113 2.16202,4.26181 2.46016,6.01191 2.15769,12.66521 -0.29402,6.46753 -0.84117,8.50952 -3.37171,12.58496 -6.28136,10.11593 -17.97944,15.21508 -32.94763,14.36163 -7.25039,-0.41343 -10.05038,-1.07778 -15.159,-3.59725 -10.64184,-5.24817 -19.08873,-15.00626 -22.58157,-26.0869 -1.49837,-4.75338 -1.9691,-5.30728 -4.50982,-5.30728 -3.5022,0 -3.488,-0.9623 -0.32029,21.7385 1.38409,9.91878 2.51685,18.14738 2.51725,18.28583 0,0.99754 5.04065,-0.0524 6.04212,-1.25863 1.751,-2.10986 4.8441,-1.89962 15.74642,1.07054 16.53222,4.50387 26.06717,4.95315 39.1297,1.84404 z m 345.87054,0.40518 c 34.17235,-5.79653 62.14265,-31.07741 70.51375,-63.73384 8.4666,-33.02898 -2.6752,-64.34402 -29.7342,-83.5706 -30.52345,-21.68815 -75.18579,-23.49665 -108.9338,-4.41113 -9.48793,5.36577 -23.46846,18.82674 -28.88216,27.8088 -8.36333,13.87611 -13.42431,34.20615 -12.34743,49.60046 0.81528,11.65519 2.82778,18.9228 8.36372,30.20443 8.09629,16.49908 24.47496,30.75973 44.06493,38.36657 18.39045,7.14104 37.38918,9.05415 56.95519,5.73531 z m -24.66898,-7.26047 C 920.25319,727.6386 899.15055,706.10562 892.01,674.67217 c -2.56276,-11.28163 -2.31959,-30.38013 0.52319,-41.09215 4.32001,-16.27807 13.02216,-30.3901 23.74143,-38.50059 11.09746,-8.39665 20.48259,-11.34103 36.14969,-11.34103 32.81451,0 58.95879,21.66641 67.05689,55.57169 8.5937,35.98052 -3.5336,73.11987 -28.69022,87.86262 -10.81231,6.33643 -27.59373,8.84795 -41.27591,6.17744 z m 295.52553,-66.96347 c 0,-40.38178 0.2814,-74.15496 0.6255,-75.05141 1.0537,-2.74602 6.2957,-4.72186 14.0918,-5.3115 7.3745,-0.55773 7.4345,-0.58542 7.4345,-3.43756 l 0,-2.87541 -30.207,0 -30.2071,0 0,2.87299 c 0,2.85013 0.06,2.87802 7.64,3.51872 8.9613,0.75749 13.6927,2.72346 15.6309,6.49481 1.1327,2.20381 1.4421,12.95147 1.6296,56.58967 l 0.2314,53.86923 -5.7694,-6.18248 c -3.1731,-3.40031 -29.7435,-31.15303 -59.0453,-61.67271 l -53.2759,-55.49023 -20.4796,0 -20.4796,0 0,2.89061 c 0,2.77794 0.23,2.91669 5.8962,3.55778 3.2429,0.36692 7.8872,1.67146 10.3208,2.89897 l 4.4245,2.232 0,65.54848 c 0,71.87 0.2028,69.41668 -6.0057,72.65025 -1.6811,0.8755 -5.775,1.85632 -9.0978,2.17964 -5.9108,0.57514 -6.0414,0.65317 -6.0414,3.60853 l 0,3.0207 29.9553,0.26673 29.9553,0.26673 0,-3.53916 0,-3.53916 -5.7897,-0.0101 c -11.8076,-0.0111 -17.7686,-3.6175 -18.8743,-11.41796 -0.3262,-2.30087 -0.4607,-29.26499 -0.299,-59.9202 l 0.2939,-55.73683 64.4417,67.53328 64.4417,67.53338 4.2793,0.0342 4.2794,0.0342 0,-73.42144 z m -968.63912,69.49714 c 9.06967,-2.69578 14.96779,-6.00204 21.34057,-11.9631 16.18916,-15.14309 19.64596,-39.98204 7.93328,-57.00572 -4.39684,-6.3906 -10.45033,-11.22856 -19.94833,-15.94247 l -8.29526,-4.11692 5.3546,-2.17631 c 9.49055,-3.85724 15.45131,-9.75154 19.35819,-19.14251 2.65469,-6.38103 1.64225,-18.66876 -2.10564,-25.55485 -7.52427,-13.82466 -20.78717,-19.89225 -48.79846,-22.32452 -11.81619,-1.02593 -74.83372,0.24941 -81.82222,1.65605 -2.2614,0.45522 -2.76898,1.09642 -2.76898,3.49808 l 0,2.94066 8.30694,0 c 9.34424,0 13.84409,1.65766 17.29746,6.36542 2.0573,2.80453 2.08539,3.70087 2.08539,66.4998 0,59.0597 -0.12798,63.85215 -1.77154,66.36064 -2.93029,4.47225 -7.31887,6.07494 -18.35592,6.70375 -8.64092,0.49227 -10.10747,0.82958 -10.40592,2.3939 -0.97468,5.10822 -3.12149,4.92687 52.93814,4.47296 50.31366,-0.40739 52.36572,-0.49912 59.6577,-2.66647 z m -43.96111,-7.10893 c -5.46516,-1.30222 -9.81175,-4.50518 -12.42537,-9.15625 -2.51604,-4.47739 -2.51745,-4.49532 -2.84389,-36.44873 l -0.32664,-31.96912 14.92671,0.0101 c 17.33774,0.0101 25.42416,1.1079 33.08718,4.49672 7.71287,3.41108 15.67343,11.25253 19.22155,18.93398 2.57686,5.57853 2.89404,7.36901 2.89404,16.33436 0,11.86965 -1.71234,17.75116 -7.30387,25.08634 -4.46641,5.85926 -12.97311,10.90988 -21.13687,12.54941 -6.22768,1.25068 -21.14171,1.34543 -26.09284,0.16564 z m -15.44607,-114.31865 0,-30.90985 18.37595,0.40809 c 22.22463,0.49369 27.19943,1.93114 35.53627,10.26808 6.34831,6.34831 8.51939,12.13508 8.5058,22.67119 -0.0121,9.31193 -2.86494,16.26982 -8.61424,21.0089 -6.88268,5.67318 -10.86991,6.50982 -33.41403,7.01055 l -20.38975,0.4529 0,-30.90986 z m 592.05801,120.82082 0,-3.52416 -8.53833,0 c -10.43945,0 -15.9764,-1.92761 -18.43495,-6.41788 -1.56855,-2.86484 -1.74909,-9.09625 -2.00957,-69.35144 l -0.28606,-66.20377 23.29265,0 c 27.42527,0 28.60556,0.29925 32.57144,8.2577 1.38369,2.77653 3.26095,8.39796 4.1718,12.49192 1.59322,7.16138 1.76671,7.44362 4.57566,7.44362 1.6058,0 2.91961,-0.13291 2.91961,-0.29543 0,-0.16251 -0.90621,-9.09161 -2.0138,-19.8426 -1.1076,-10.75089 -2.01381,-20.13319 -2.01381,-20.8495 0,-1.91442 -5.05343,-1.59725 -7.32651,0.45975 -1.81222,1.64014 -6.47549,1.76208 -67.37107,1.76208 -61.1465,0 -65.5083,-0.11519 -66.71255,-1.76208 -0.72618,-0.99321 -2.59287,-1.76208 -4.27782,-1.76208 l -2.98949,0 -1.72815,18.37595 c -0.95041,10.10677 -1.97,19.62199 -2.26573,21.14493 -0.49217,2.53467 -0.27689,2.76898 2.54384,2.76898 2.5382,0 3.19218,-0.48825 3.70932,-2.76898 3.46586,-15.28768 4.73002,-18.44865 8.95961,-22.40356 l 2.69205,-2.51725 24.58995,-0.30177 24.58994,-0.30177 -0.0564,65.24691 c -0.0413,47.83587 -0.37749,66.16218 -1.25863,68.67672 -2.1159,6.03848 -5.38913,7.54521 -17.35404,7.98815 l -10.53068,0.38977 0,3.40997 0,3.40997 40.27605,0 40.27606,0 0,-3.52415 z"
           style="fill:#cb0101" />
      </g>
    </g>
    <g
       style="opacity:1"
       transform="matrix(4.4029934,0,0,4.4029934,3702.6298,-3172.2737)"
       id="g5007">
      <rect
         style="opacity:1;fill:#cc0000;fill-opacity:1;stroke:#cc0000;stroke-width:4;stroke-miterlimit:4;stroke-dasharray:none;stroke-dashoffset:0;stroke-opacity:1"
         id="rect5009"
         width="102.00001"
         height="60"
         x="20.022455"
         y="233.40034" />
      <g
         transform="scale(1.012202,0.98794509)"
         style="font-style:normal;font-weight:normal;font-size:39.51780319px;line-height:125%;font-family:Roboto-Bold;letter-spacing:0px;word-spacing:0px;opacity:1;fill:#ffffff;fill-opacity:1;stroke:none;stroke-width:1px;stroke-linecap:butt;stroke-linejoin:miter;stroke-opacity:1"
         id="text5011">
        <path
           inkscape:connector-curvature="0"
           d="m 67.880441,281.24057 -5.78874,0 0,-12.04058 -11.288045,0 0,12.04058 -5.78874,0 0,-28.09469 5.78874,0 0,11.38453 11.288045,0 0,-11.38453 5.78874,0 0,28.09469 z"
           style="font-style:normal;font-variant:normal;font-weight:bold;font-stretch:normal;font-family:Roboto;-inkscape-font-specification:'Roboto Bold';fill:#ffffff;fill-opacity:1"
           id="path5070" />
        <path
           inkscape:connector-curvature="0"
           d="m 83.560473,279.11803 q -2.064651,2.50846 -5.711558,2.50846 -3.357469,0 -5.132683,-1.92958 -1.755918,-1.92958 -1.79451,-5.65367 l 0,-13.68073 5.576487,0 0,13.48777 q 0,3.26099 2.971554,3.26099 2.836483,0 3.897752,-1.96817 l 0,-14.78059 5.595783,0 0,20.87806 -5.248459,0 -0.154366,-2.12254 z"
           style="font-style:normal;font-variant:normal;font-weight:bold;font-stretch:normal;font-family:Roboto;-inkscape-font-specification:'Roboto Bold';fill:#ffffff;fill-opacity:1"
           id="path5072" />
        <path
           inkscape:connector-curvature="0"
           d="m 112.02178,270.9945 q 0,5.01691 -2.14183,7.83409 -2.14184,2.7979 -5.9817,2.7979 -3.39606,0 -5.422122,-2.60494 l -0.250846,2.21902 -5.016908,0 0,-29.63835 5.576487,0 0,10.63198 q 1.929579,-2.2576 5.074799,-2.2576 3.82057,0 5.9817,2.81718 2.18042,2.79789 2.18042,7.89199 l 0,0.30873 z m -5.57649,-0.40521 q 0,-3.16451 -1.00338,-4.6117 -1.00338,-1.46648 -2.99085,-1.46648 -2.662818,0 -3.666199,2.18043 l 0,8.2393 q 1.022677,2.19972 3.704789,2.19972 2.70142,0 3.55043,-2.66282 0.40521,-1.27352 0.40521,-3.87845 z"
           style="font-style:normal;font-variant:normal;font-weight:bold;font-stretch:normal;font-family:Roboto;-inkscape-font-specification:'Roboto Bold';fill:#ffffff;fill-opacity:1"
           id="path5074" />
      </g>
      <path
         inkscape:connector-curvature="0"
         style="opacity:1;fill:#cc0000;fill-opacity:1;stroke:#ffffff;stroke-width:2;stroke-miterlimit:4;stroke-dasharray:none;stroke-dashoffset:0;stroke-opacity:1"
         d="m 51.654852,251.40038 a 3.3213487,3.3213487 0 0 1 -3.321348,3.32134 3.3213487,3.3213487 0 0 1 -3.321349,-3.32134 3.3213487,3.3213487 0 0 1 3.321349,-3.32135 3.3213487,3.3213487 0 0 1 3.321348,3.32135 z"
         id="circle5015" />
      <path
         inkscape:connector-curvature="0"
         style="opacity:1;fill:#cc0000;fill-opacity:1;stroke:#ffffff;stroke-width:2;stroke-miterlimit:4;stroke-dasharray:none;stroke-dashoffset:0;stroke-opacity:1"
         d="m 69.135626,276.57269 a 3.3213487,3.3213487 0 0 1 -3.321348,3.32135 3.3213487,3.3213487 0 0 1 -3.321349,-3.32135 3.3213487,3.3213487 0 0 1 3.321349,-3.32135 3.3213487,3.3213487 0 0 1 3.321348,3.32135 z"
         id="circle5017" />
      <path
         inkscape:connector-curvature="0"
         style="opacity:1;fill:#cc0000;fill-opacity:1;stroke:#ffffff;stroke-width:2;stroke-miterlimit:4;stroke-dasharray:none;stroke-dashoffset:0;stroke-opacity:1"
         d="m 100.60105,250.35153 a 3.3213487,3.3213487 0 0 1 -3.321349,3.32135 3.3213487,3.3213487 0 0 1 -3.321348,-3.32135 3.3213487,3.3213487 0 0 1 3.321348,-3.32135 3.3213487,3.3213487 0 0 1 3.321349,3.32135 z"
         id="circle5019" />
      <path
         inkscape:connector-curvature="0"
         style="opacity:1;fill:#cc0000;fill-opacity:1;stroke:#ffffff;stroke-width:2;stroke-miterlimit:4;stroke-dasharray:none;stroke-dashoffset:0;stroke-opacity:1"
         d="m 90.419898,258.88168 a 3.3213487,3.3213487 0 0 1 -3.321349,3.32135 3.3213487,3.3213487 0 0 1 -3.321349,-3.32135 3.3213487,3.3213487 0 0 1 3.321349,-3.32135 3.3213487,3.3213487 0 0 1 3.321349,3.32135 z"
         id="circle5021" />
      <rect
         style="opacity:1;fill:none;fill-opacity:1;stroke:#ffffff;stroke-width:1.50000012;stroke-miterlimit:4;stroke-dasharray:none;stroke-dashoffset:0;stroke-opacity:1"
         id="rect5023"
         width="95.756241"
         height="53.499722"
         x="23.074251"
         y="236.64369" />
      <g
         transform="matrix(0,-0.98566372,1.0145448,0,0,0)"
         style="font-style:normal;font-weight:normal;font-size:17.98905373px;line-height:125%;font-family:Roboto-Bold;letter-spacing:0px;word-spacing:0px;opacity:1;fill:#ffffff;fill-opacity:1;stroke:none;stroke-width:1px;stroke-linecap:butt;stroke-linejoin:miter;stroke-opacity:1"
         id="text5025">
        <path
           inkscape:connector-curvature="0"
           d="m -282.27831,40.810631 0,-12.789093 4.47969,0 q 2.32769,0 3.53106,0.895939 1.20337,0.887156 1.20337,2.608764 0,0.939858 -0.48311,1.660123 -0.4831,0.711481 -1.34391,1.045262 0.98378,0.245944 1.54594,0.99256 0.57094,0.746616 0.57094,1.827014 0,1.84458 -1.17702,2.793222 -1.17702,0.948641 -3.35538,0.966209 l -4.97158,0 z m 2.63511,-5.568877 0,3.452001 2.25742,0 q 0.93107,0 1.44931,-0.439186 0.52702,-0.44797 0.52702,-1.229721 0,-1.756743 -1.81823,-1.783094 l -2.41552,0 z m 0,-1.862148 1.94999,0 q 1.9939,-0.03514 1.9939,-1.589853 0,-0.869588 -0.50945,-1.247288 -0.50068,-0.386484 -1.58986,-0.386484 l -1.84458,0 0,3.223625 z"
           style="font-style:normal;font-variant:normal;font-weight:bold;font-stretch:normal;font-family:Roboto;-inkscape-font-specification:'Roboto Bold';fill:#ffffff;fill-opacity:1"
           id="path5077" />
        <path
           inkscape:connector-curvature="0"
           d="m -261.99776,28.021538 0,8.423585 q 0,2.099309 -1.31755,3.320245 -1.30878,1.220937 -3.58376,1.220937 -2.23985,0 -3.55741,-1.185802 -1.31755,-1.185802 -1.3439,-3.258759 l 0,-8.520206 2.63511,0 0,8.441153 q 0,1.256071 0.59729,1.835797 0.60608,0.570941 1.66891,0.570941 2.22228,0 2.25742,-2.336469 l 0,-8.511422 2.64389,0 z"
           style="font-style:normal;font-variant:normal;font-weight:bold;font-stretch:normal;font-family:Roboto;-inkscape-font-specification:'Roboto Bold';fill:#ffffff;fill-opacity:1"
           id="path5079" />
        <path
           inkscape:connector-curvature="0"
           d="m -260.53427,40.810631 0,-12.789093 4.4797,0 q 2.32768,0 3.53105,0.895939 1.20337,0.887156 1.20337,2.608764 0,0.939858 -0.4831,1.660123 -0.48311,0.711481 -1.34391,1.045262 0.98377,0.245944 1.54593,0.99256 0.57094,0.746616 0.57094,1.827014 0,1.84458 -1.17701,2.793222 -1.17702,0.948641 -3.35538,0.966209 l -4.97159,0 z m 2.63512,-5.568877 0,3.452001 2.25741,0 q 0.93108,0 1.44932,-0.439186 0.52702,-0.44797 0.52702,-1.229721 0,-1.756743 -1.81823,-1.783094 l -2.41552,0 z m 0,-1.862148 1.94998,0 q 1.99391,-0.03514 1.99391,-1.589853 0,-0.869588 -0.50946,-1.247288 -0.50067,-0.386484 -1.58985,-0.386484 l -1.84458,0 0,3.223625 z"
           style="font-style:normal;font-variant:normal;font-weight:bold;font-stretch:normal;font-family:Roboto;-inkscape-font-specification:'Roboto Bold';fill:#ffffff;fill-opacity:1"
           id="path5081" />
      </g>
    </g>
  </g>
  <g
     inkscape:groupmode="layer"
     id="layer2"
     inkscape:label="text"
     style="display:inline">
    <text
       xml:space="preserve"
       style="font-style:normal;font-weight:normal;font-size:90px;line-height:125%;font-family:sans-serif;text-align:center;letter-spacing:0px;word-spacing:0px;text-anchor:middle;fill:#000000;fill-opacity:1;stroke:none;stroke-width:1px;stroke-linecap:butt;stroke-linejoin:miter;stroke-opacity:1"
       x="2097.0354"
       y="169.68379"
       id="text4967"
       sodipodi:linespacing="125%"><tspan
         sodipodi:role="line"
         id="tspan4969"
         x="2097.0354"
         y="169.68379" /></text>
    <text
       sodipodi:linespacing="125%"
       id="text4979"
       y="330.7858"
       x="2158.0354"
       style="font-style:normal;font-weight:normal;font-size:48.76179123px;line-height:125%;font-family:sans-serif;letter-spacing:0px;word-spacing:0px;fill:#cccccc;fill-opacity:1;stroke:none;stroke-width:1px;stroke-linecap:butt;stroke-linejoin:miter;stroke-opacity:1"
       xml:space="preserve"><tspan
         style="font-size:70px;text-align:center;text-anchor:middle;fill:#ffffff"
         y="330.7858"
         x="2158.0354"
         id="tspan4981"
         sodipodi:role="line">author one, author two, author three, et al</tspan></text>
    <flowRoot
       xml:space="preserve"
       id="flowRoot7100"
       style="fill:black;stroke:none;stroke-opacity:1;stroke-width:1px;stroke-linejoin:miter;stroke-linecap:butt;fill-opacity:1;font-family:sans-serif;font-style:normal;font-weight:normal;font-size:60px;line-height:0%;letter-spacing:0px;word-spacing:0px"><flowRegion
         id="flowRegion7102"><rect
           id="rect7104"
           width="3147.1812"
           height="242.50539"
           x="641.29205"
           y="17.372782" /></flowRegion><flowPara
         id="flowPara7106" /></flowRoot>    <flowRoot
       xml:space="preserve"
       id="flowRoot5314"
       style="fill:black;stroke:none;stroke-opacity:1;stroke-width:1px;stroke-linejoin:miter;stroke-linecap:butt;fill-opacity:1;font-family:sans-serif;font-style:normal;font-weight:normal;font-size:180px;line-height:0%;letter-spacing:0px;word-spacing:0px;text-anchor:middle;text-align:center;"><flowRegion
         id="flowRegion5316"><rect
           id="rect5318"
           width="3190.2932"
           height="220.94936"
           x="646.68103"
           y="28.150734"
           style="text-anchor:middle;text-align:center;font-size:180px;" /></flowRegion><flowPara
         id="flowPara5320" /></flowRoot>    <flowRoot
       xml:space="preserve"
       id="flowRoot5322"
       style="font-style:normal;font-weight:normal;font-size:60px;line-height:100%;font-family:sans-serif;letter-spacing:0px;word-spacing:0px;fill:#000000;fill-opacity:1;stroke:none;stroke-width:1px;stroke-linecap:butt;stroke-linejoin:miter;stroke-opacity:1"
       transform="translate(-2.4414063e-4,13.279097)"><flowRegion
         id="flowRegion5324"><rect
           id="rect5326"
           width="3190.2932"
           height="237.11639"
           x="646.68103"
           y="22.761724"
           style="line-height:100%" /></flowRegion><flowPara
         id="flowPara5328"
         style="font-size:112.5px;line-height:100%;text-align:center;text-anchor:middle;fill:#ffffff">poster title poster title poster title poster title poster title poster title</flowPara></flowRoot>  </g>
  <g
     inkscape:groupmode="layer"
     id="layer3"
     inkscape:label="three column grid"
     style="display:inline">
    <path
       style="fill:none;fill-rule:evenodd;stroke:#000000;stroke-width:2;stroke-linecap:butt;stroke-linejoin:miter;stroke-miterlimit:4;stroke-dasharray:none;stroke-opacity:1"
       d="m 1440.82,405 0,2790"
       id="path5384"
       inkscape:connector-curvature="0" />
    <path
       inkscape:connector-curvature="0"
       id="path5386"
       d="m 2880.6402,405 0,2790"
       style="fill:none;fill-rule:evenodd;stroke:#000000;stroke-width:2;stroke-linecap:butt;stroke-linejoin:miter;stroke-miterlimit:4;stroke-dasharray:none;stroke-opacity:1" />
    <path
       style="fill:none;fill-rule:evenodd;stroke:#000000;stroke-width:2;stroke-linecap:butt;stroke-linejoin:miter;stroke-miterlimit:4;stroke-dasharray:none;stroke-opacity:1"
       d="m 2924.9998,2699.5002 1350,0"
       id="path5390"
       inkscape:connector-curvature="0" />
    <flowRoot
       xml:space="preserve"
       id="flowRoot5396"
       style="font-style:normal;font-variant:normal;font-weight:normal;font-stretch:normal;font-size:112.5px;line-height:0%;font-family:sans-serif;-inkscape-font-specification:sans-serif;letter-spacing:0px;word-spacing:0px;fill:#000000;fill-opacity:1;stroke:none;stroke-width:1px;stroke-linecap:butt;stroke-linejoin:miter;stroke-opacity:1"
       transform="translate(-2.4414063e-4,0)"><flowRegion
         id="flowRegion5398"><rect
           id="rect5400"
           width="1348.8209"
           height="457.46725"
           x="2926.3755"
           y="2740.0874"
           style="font-style:normal;font-variant:normal;font-weight:normal;font-stretch:normal;font-family:sans-serif;-inkscape-font-specification:sans-serif" /></flowRegion><flowPara
         style="font-style:normal;font-variant:normal;font-weight:normal;font-stretch:normal;font-size:45px;line-height:100%;font-family:sans-serif;-inkscape-font-specification:sans-serif"
         id="flowPara5408" /></flowRoot>    <text
       xml:space="preserve"
       style="font-style:normal;font-weight:normal;font-size:45px;line-height:100%;font-family:sans-serif;letter-spacing:0px;word-spacing:0px;fill:#000000;fill-opacity:1;stroke:none;stroke-width:1px;stroke-linecap:butt;stroke-linejoin:miter;stroke-opacity:1"
       x="2928.7334"
       y="2742.4453"
       id="text5412"
       sodipodi:linespacing="100%"><tspan
         sodipodi:role="line"
         id="tspan5414"
         x="2928.7334"
         y="2742.4453" /></text>
    <text
       xml:space="preserve"
       style="font-style:normal;font-weight:normal;font-size:45px;line-height:100%;font-family:sans-serif;text-align:center;letter-spacing:0px;word-spacing:0px;text-anchor:middle;fill:#000000;fill-opacity:1;stroke:none;stroke-width:1px;stroke-linecap:butt;stroke-linejoin:miter;stroke-opacity:1"
       x="3599.78"
       y="2780.2881"
       id="text5442"
       sodipodi:linespacing="100%"><tspan
         sodipodi:role="line"
         id="tspan5444"
         x="3599.78"
         y="2780.2881"
         style="font-style:normal;font-variant:normal;font-weight:bold;font-stretch:normal;font-family:sans-serif;-inkscape-font-specification:'sans-serif Bold';text-align:center;text-anchor:middle">Acknowledgements and Funding</tspan></text>
    <path
       inkscape:connector-curvature="0"
       id="path5446"
       d="m 44.999756,1259 1349.999944,0"
       style="fill:none;fill-rule:evenodd;stroke:#000000;stroke-width:2;stroke-linecap:butt;stroke-linejoin:miter;stroke-miterlimit:4;stroke-dasharray:none;stroke-opacity:1" />
    <text
       xml:space="preserve"
       style="font-style:normal;font-weight:normal;font-size:60px;line-height:0%;font-family:sans-serif;text-align:center;letter-spacing:0px;word-spacing:0px;text-anchor:middle;display:inline;fill:#000000;fill-opacity:1;stroke:none;stroke-width:1px;stroke-linecap:butt;stroke-linejoin:miter;stroke-opacity:1"
       x="715.8689"
       y="440.28809"
       id="text5446"
       sodipodi:linespacing="0%"><tspan
         sodipodi:role="line"
         id="tspan5448"
         x="715.8689"
         y="440.28809"
         style="font-weight:bold;font-size:45px;text-align:center;text-anchor:middle">Background</tspan></text>
    <text
       sodipodi:linespacing="0%"
       id="text5482"
       y="1349.3628"
       x="716.76978"
       style="font-style:normal;font-weight:normal;font-size:60px;line-height:0%;font-family:sans-serif;text-align:center;letter-spacing:0px;word-spacing:0px;text-anchor:middle;display:inline;fill:#000000;fill-opacity:1;stroke:none;stroke-width:1px;stroke-linecap:butt;stroke-linejoin:miter;stroke-opacity:1"
       xml:space="preserve"><tspan
         style="font-weight:bold;font-size:45px;text-align:center;text-anchor:middle"
         y="1349.3628"
         x="716.76978"
         id="tspan5484"
         sodipodi:role="line">Subtitle</tspan></text>
    <path
       style="fill:none;fill-rule:evenodd;stroke:#000000;stroke-width:2;stroke-linecap:butt;stroke-linejoin:miter;stroke-miterlimit:4;stroke-dasharray:none;stroke-opacity:1"
       d="m 1484.9998,2159 1349.9999,0"
       id="path5490"
       inkscape:connector-curvature="0" />
    <text
       xml:space="preserve"
       style="font-style:normal;font-weight:normal;font-size:60px;line-height:0%;font-family:sans-serif;text-align:center;letter-spacing:0px;word-spacing:0px;text-anchor:middle;display:inline;fill:#000000;fill-opacity:1;stroke:none;stroke-width:1px;stroke-linecap:butt;stroke-linejoin:miter;stroke-opacity:1"
       x="2156.7698"
       y="449.36279"
       id="text5492"
       sodipodi:linespacing="0%"><tspan
         sodipodi:role="line"
         id="tspan5494"
         x="2156.7698"
         y="449.36279"
         style="font-weight:bold;font-size:45px;text-align:center;text-anchor:middle">Subtitle</tspan></text>
    <text
       sodipodi:linespacing="0%"
       id="text5498"
       y="449.36279"
       x="3596.7698"
       style="font-style:normal;font-weight:normal;font-size:60px;line-height:0%;font-family:sans-serif;text-align:center;letter-spacing:0px;word-spacing:0px;text-anchor:middle;display:inline;fill:#000000;fill-opacity:1;stroke:none;stroke-width:1px;stroke-linecap:butt;stroke-linejoin:miter;stroke-opacity:1"
       xml:space="preserve"><tspan
         style="font-weight:bold;font-size:45px;text-align:center;text-anchor:middle"
         y="449.36279"
         x="3596.7698"
         id="tspan5500"
         sodipodi:role="line">Subtitle</tspan></text>
    <text
       sodipodi:linespacing="0%"
       id="text5502"
       y="2249.3628"
       x="2156.7698"
       style="font-style:normal;font-weight:normal;font-size:60px;line-height:0%;font-family:sans-serif;text-align:center;letter-spacing:0px;word-spacing:0px;text-anchor:middle;display:inline;fill:#000000;fill-opacity:1;stroke:none;stroke-width:1px;stroke-linecap:butt;stroke-linejoin:miter;stroke-opacity:1"
       xml:space="preserve"><tspan
         style="font-weight:bold;font-size:45px;text-align:center;text-anchor:middle"
         y="2249.3628"
         x="2156.7698"
         id="tspan5504"
         sodipodi:role="line">Subtitle</tspan></text>
  </g>
  <g
     style="display:none"
     inkscape:label="two column grid"
     id="g5450"
     inkscape:groupmode="layer">
    <path
       style="fill:none;fill-rule:evenodd;stroke:#000000;stroke-width:2;stroke-linecap:butt;stroke-linejoin:miter;stroke-miterlimit:4;stroke-dasharray:none;stroke-opacity:1"
       d="m 2160.6402,405 0,2790"
       id="path5454"
       inkscape:connector-curvature="0" />
    <path
       inkscape:connector-curvature="0"
       id="path5456"
       d="m 2204.9998,2789 2070,0"
       style="fill:none;fill-rule:evenodd;stroke:#000000;stroke-width:2;stroke-linecap:butt;stroke-linejoin:miter;stroke-miterlimit:4;stroke-dasharray:none;stroke-opacity:1" />
    <flowRoot
       transform="translate(-2.4414063e-4,0)"
       style="font-style:normal;font-variant:normal;font-weight:normal;font-stretch:normal;font-size:112.5px;line-height:0%;font-family:sans-serif;-inkscape-font-specification:sans-serif;letter-spacing:0px;word-spacing:0px;fill:#000000;fill-opacity:1;stroke:none;stroke-width:1px;stroke-linecap:butt;stroke-linejoin:miter;stroke-opacity:1"
       id="flowRoot5458"
       xml:space="preserve"><flowRegion
         id="flowRegion5460"><rect
           style="font-style:normal;font-variant:normal;font-weight:normal;font-stretch:normal;font-family:sans-serif;-inkscape-font-specification:sans-serif"
           y="2740.0874"
           x="2926.3755"
           height="457.46725"
           width="1348.8209"
           id="rect5462" /></flowRegion><flowPara
         id="flowPara5464"
         style="font-style:normal;font-variant:normal;font-weight:normal;font-stretch:normal;font-size:45px;line-height:100%;font-family:sans-serif;-inkscape-font-specification:sans-serif" /></flowRoot>    <text
       sodipodi:linespacing="100%"
       id="text5466"
       y="2742.4453"
       x="2928.7334"
       style="font-style:normal;font-weight:normal;font-size:45px;line-height:100%;font-family:sans-serif;letter-spacing:0px;word-spacing:0px;fill:#000000;fill-opacity:1;stroke:none;stroke-width:1px;stroke-linecap:butt;stroke-linejoin:miter;stroke-opacity:1"
       xml:space="preserve"><tspan
         y="2742.4453"
         x="2928.7334"
         id="tspan5468"
         sodipodi:role="line" /></text>
    <text
       sodipodi:linespacing="100%"
       id="text5470"
       y="2870.2881"
       x="3239.78"
       style="font-style:normal;font-weight:normal;font-size:45px;line-height:100%;font-family:sans-serif;text-align:center;letter-spacing:0px;word-spacing:0px;text-anchor:middle;fill:#000000;fill-opacity:1;stroke:none;stroke-width:1px;stroke-linecap:butt;stroke-linejoin:miter;stroke-opacity:1"
       xml:space="preserve"><tspan
         style="font-style:normal;font-variant:normal;font-weight:bold;font-stretch:normal;font-family:sans-serif;-inkscape-font-specification:'sans-serif Bold';text-align:center;text-anchor:middle"
         y="2870.2881"
         x="3239.78"
         id="tspan5472"
         sodipodi:role="line">Acknowledgements and Funding</tspan></text>
    <text
       sodipodi:linespacing="0%"
       id="text5476"
       y="439.18945"
       x="1075.8689"
       style="font-style:normal;font-weight:normal;font-size:60px;line-height:0%;font-family:sans-serif;text-align:center;letter-spacing:0px;word-spacing:0px;text-anchor:middle;display:inline;fill:#000000;fill-opacity:1;stroke:none;stroke-width:1px;stroke-linecap:butt;stroke-linejoin:miter;stroke-opacity:1"
       xml:space="preserve"><tspan
         style="font-weight:bold;font-size:45px;text-align:center;text-anchor:middle"
         y="439.18945"
         x="1075.8689"
         id="tspan5478"
         sodipodi:role="line">Background</tspan></text>
    <text
       xml:space="preserve"
       style="font-style:normal;font-weight:normal;font-size:60px;line-height:0%;font-family:sans-serif;text-align:center;letter-spacing:0px;word-spacing:0px;text-anchor:middle;display:inline;fill:#000000;fill-opacity:1;stroke:none;stroke-width:1px;stroke-linecap:butt;stroke-linejoin:miter;stroke-opacity:1"
       x="3236.7698"
       y="439.18945"
       id="text5508"
       sodipodi:linespacing="0%"><tspan
         sodipodi:role="line"
         id="tspan5510"
         x="3236.7698"
         y="439.18945"
         style="font-weight:bold;font-size:45px;text-align:center;text-anchor:middle">Subtitle</tspan></text>
    <text
       xml:space="preserve"
       style="font-style:normal;font-weight:normal;font-size:60px;line-height:0%;font-family:sans-serif;text-align:center;letter-spacing:0px;word-spacing:0px;text-anchor:middle;display:inline;fill:#000000;fill-opacity:1;stroke:none;stroke-width:1px;stroke-linecap:butt;stroke-linejoin:miter;stroke-opacity:1"
       x="1075.8689"
       y="989.36279"
       id="text5512"
       sodipodi:linespacing="0%"><tspan
         sodipodi:role="line"
         id="tspan5514"
         x="1075.8689"
         y="989.36279"
         style="font-weight:bold;font-size:45px;text-align:center;text-anchor:middle">Subtitle</tspan></text>
    <path
       style="fill:none;fill-rule:evenodd;stroke:#000000;stroke-width:2;stroke-linecap:butt;stroke-linejoin:miter;stroke-miterlimit:4;stroke-dasharray:none;stroke-opacity:1"
       d="M 44.999756,899 2114.9998,899"
       id="path5516"
       inkscape:connector-curvature="0" />
  </g>
</svg>
